{
  "npmScope": "mgs",
  "implicitDependencies": {
    "angular.json": "*",
    "package.json": "*",
    "tsconfig.json": "*",
    "tslint.json": "*",
    "nx.json": "*"
  },
  "projects": {
    "mgs": {
      "tags": []
    },
    "mgs-e2e": {
      "tags": []
    },
    "axa": {
      "tags": []
    },
    "axa-e2e": {
      "tags": []
    },
    "debeka": {
      "tags": []
    },
    "debeka-e2e": {
      "tags": []
    },
    "title": {
      "tags": []
    },
    "ui": {
      "tags": []
    },
    "global-translation": {
      "tags": []
    },
    "shared-shared-translation": {
      "tags": []
    },
    "core": {
      "tags": []
    },
    "features-electronic-health-record": {
      "tags": []
    },
    "features-login": {
      "tags": []
    },
    "features-dashboard": {
      "tags": []
    },
    "default": {
      "tags": []
    },
    "default-e2e": {
      "tags": []
    },
    "shared": {
      "tags": []
    },
    "features-main-navigation": {
      "tags": []
    },
    "invoice-management": {
      "tags": []
    }
  }
}
